$ # GAME START PackSize PackCost UPC COMMENTS
$1 1586 LUCKYSYMBOLS 2/10/2014 150 $150 817522015869
$5 1585 CASHMULTIPLIER 2/10/2014 75 $375 817522015852
$5 1514 REDHOTANDWILD7'S 2/10/2014 75 $375 817522015142
$3 1634 BONUSCASHWORD 2/17/2014 125 $375 817522016347
$2 1614 ONTHEMONEY-(VETERANS) 3/3/2014 125 $250 817522016149
$5 1588 7 3/3/2014 75 $375 817522015883 Secure_Shield_Game
$10 1490 JUMBOCASHDOUBLER 3/3/2014 50 $500 817522014909
$1 1627 WEEKLYHALFGRAND 3/10/2014 150 $150 817522016279
$1 1521 LUCKY7'S 3/31/2014 150 $150 817522015210
$2 1587 CHILIPEPPERTRIPLER 3/31/2014 125 $250 817522015876
$3 1530 BLACKCHERRYTRIPLER 3/31/2014 125 $375 817522015302
$5 1623 SOLIDGOLD 3/31/2014 75 $375 817522016231
$10 1567 ULTIMATECROSSWORD 3/31/2014 50 $500 817522015678
$2 1640 10XTHECASH 4/9/2014 125 $250 817522016408 Secure_Shield_Game
$3 1633 TWISTEDBINGO 4/14/2014 125 $375 817522016330 Secure_Shield_Game
$5 1632 BONUSBREAKTHEBANK 4/16/2014 75 $375 817522016323 Secure_Shield_Game
$2 1596 TRIPLEWINNING777'S 4/22/2014 125 $250 817522015968 Secure_Shield_Game
$2 1509 LUCKYNUMBERS 4/28/2014 125 $250 817522015098
$3 1635 LOTERIA 4/28/2014 75 $375 817522016354 Secure_Shield_Game
$5 1636 DREAMHOME(HomeDepot) 4/28/2014 75 $375 817522016361 Secure_Shield_Game
$5 1629 BONUSWEEKLYGRAND 4/28/2014 75 $375 817522016293 Secure_Shield_Game
$50 1492 MILLIONNAIRE'SCLUB 4/28/2014 20 $1,000 817522014923
$1 1639 5XTHECASH 5/2/2014 150 $150 817522016392
$1 1581 TWOCANDOUBLER 5/27/2014 150 $150 817522015814
$2 1526 WILDWINNINGS 5/27/2014 125 $250 817522015265
$20 1621 INSTANTMILLIONS 5/27/2014 25 $500 817522016217
$2 1628 WEEKLYGRAND 6/2/2014 125 $250 817522016286
$5 1641 20XTHECASH 6/6/2014 75 $375 817522016415
$1 1594 MATCH3DOUBLER 6/9/2014 150 $150 817522015944 Secure_Shield_Game
$5 1604 10XSUPERFASTCASH 6/9/2014 75 $375 817522016040 Secure_Shield_Game
$2 1522 SIZZLIN'CASH 6/23/2014 125 $250 817522015227
$2 1605 CHERRYTRIPLER(Veterans) 6/23/2014 125 $250 817522016057 Secure_Shield_Game
$5 1599 GOLDENKEY 6/23/2014 75 $375 817522015999 Secure_Shield_Game
$10 1552 PLATINUMPAYOUT 6/23/2014 50 $500 817522015524
$10 1630 SUPERWEEKLYGRAND 7/1/2014 50 $500 817522016309
$1 1512 LINE'EMUP 7/21/2014 150 $150 817522015128
$2 1584 VIPCASHCLUB 7/21/2014 125 $250 817522015845
$5 1615 COWBOYS 7/21/2014 75 $375 817522016156 Secure_Shield_Game
$5 1616 TEXANS 7/21/2014 75 $375 817522016163 Secure_Shield_Game
$10 1644 $200,000,000CASHBLOWOUT 7/21/2014 50 $500 817522016446 Secure_Shield_Game
$5 1611 MONEYSPECTACULAR 8/4/2014 75 $375 817522016118 Secure_Shield_Game
$20 1602 ONEMILLIONCASH 8/4/2014 25 $500 817522016026 Secure_Shield_Game
$5 1559 INSTANTALLORNOTHING 8/18/2014 75 $375 817522015593 Secure_Shield_Game
$2 1618 TRIPLEDYNAMITE 8/18/2014 125 $250 817522016187 Secure_Shield_Game
$1 1589 DOUBLEBLACKJACK 9/1/2014 150 $150 817522015890
$5 1592 FUN5'S 9/1/2014 75 $375 817522015920 Secure_Shield_Game
$2 1647 LUCKY13 9/15/2014 125 $250 817522016477 Secure_Shield_Game
$5 1619 REDBALLTRIPLER 9/15/2014 75 $375 817522016194 Secure_Shield_Game
$2 1591 WHITEICE8'S tbd 125 $250 817522015913
$10 1607 TEXASGOLD tbd 50 $500 817522016071 Secure_Shield_Game
$2 1646 HOTNSPICYTRIPLER(Veterans) tbd 125 $250 817522016460 Secure_Shield_Game
$3 1648 LOTERIAtbd75 $225 817522016484 Secure_Shield_Game
$5 1649 $100,000CASHWORD-O-RAMA tbd 75 $375 817522016491 Secure_Shield_Game
$10 1631 BIGMONEY$250,000BINGO tbd 50 $500 817522016316 Secure_Shield_Game
$10 1651 ULTIMATECROSSOWORD tbd 50 $500 817522016514 Secure_Shield_Game